data-verde/212129.CSV

Record Length,2.500000e+03,,  -2.520000000000,   0.01600,
Sample Interval,2.000000e-03,,  -2.518000000000,   0.01200,
Trigger Point,1.260000000000e+03,,  -2.516000000000,   0.01600,
,,,  -2.514000000000,   0.01600,
,,,  -2.512000000000,   0.01200,
,,,  -2.510000000000,   0.01600,
Source,CH1,,  -2.508000000000,   0.01200,
Vertical Units,V,,  -2.506000000000,   0.01200,
Vertical Scale,1.000000e-01,,  -2.504000000000,   0.01200,
Vertical Offset,0.000000e+00,,  -2.502000000000,   0.01600,
Horizontal Units,s,,  -2.500000000000,   0.31600,
Horizontal Scale,5.000000e-01,,  -2.498000000000,   0.01600,
Pt Fmt,Y,,  -2.496000000000,   0.01200,
Yzero,0.000000e+00,,  -2.494000000000,   0.01600,
Probe Atten,1.000000e+00,,  -2.492000000000,   0.02000,
Model Number,TBS1072B,,  -2.490000000000,   0.01200,
Serial Number,C010421,,  -2.488000000000,   0.01200,
Firmware Version,FV:v2.00,,  -2.486000000000,   0.01200,
,,,-02.484000000000,   0.01600,
,,,-02.482000000000,   0.00400,
,,,-02.480000000000,   0.01600,
,,,-02.478000000000,   0.01600,
,,,-02.476000000000,   0.01600,
,,,-02.474000000000,   0.01200,
,,,-02.472000000000,   0.01200,
,,,-02.470000000000,   0.02000,
,,,-02.468000000000,   0.01200,
,,,-02.466000000000,   0.02000,
,,,-02.464000000000,   0.02000,
,,,-02.462000000000,   0.01600,
,,,-02.460000000000,   0.01600,
,,,-02.458000000000,   0.02000,
,,,-02.456000000000,   0.01600,
,,,-02.454000000000,   0.01200,
,,,-02.452000000000,   0.01600,
,,,-02.450000000000,   0.01200,
,,,-02.448000000000,   0.01200,
,,,-02.446000000000,   0.01600,
,,,-02.444000000000,   0.01600,
,,,-02.442000000000,   0.01600,
,,,-02.440000000000,   0.01200,
,,,-02.438000000000,   0.01200,
,,,-02.436000000000,   0.01600,
,,,-02.434000000000,   0.01200,
,,,-02.432000000000,   0.01200,
,,,-02.430000000000,   0.01200,
,,,-02.428000000000,   0.05200,
,,,-02.426000000000,   0.02000,
,,,-02.424000000000,   0.01200,
,,,-02.422000000000,   0.01200,
,,,-02.420000000000,   0.02000,
,,,-02.418000000000,   0.01200,
,,,-02.416000000000,   0.01200,
,,,-02.414000000000,   0.01600,
,,,-02.412000000000,   0.01200,
,,,-02.410000000000,   0.01200,
,,,-02.408000000000,   0.01200,
,,,-02.406000000000,   0.01200,
,,,-02.404000000000,   0.01600,
,,,-02.402000000000,   0.01200,
,,,-02.400000000000,   0.01600,
,,,-02.398000000000,   0.01200,
,,,-02.396000000000,   0.01600,
,,,-02.394000000000,   0.00800,
,,,-02.392000000000,   0.01200,
,,,-02.390000000000,   0.01200,
,,,-02.388000000000,   0.01200,
,,,-02.386000000000,   0.01200,
,,,-02.384000000000,   0.01600,
,,,-02.382000000000,   0.01600,
,,,-02.380000000000,   0.01600,
,,,-02.378000000000,   0.02000,
,,,-02.376000000000,   0.01600,
,,,-02.374000000000,   0.03600,
,,,-02.372000000000,   0.01600,
,,,-02.370000000000,   0.01600,
,,,-02.368000000000,   0.01200,
,,,-02.366000000000,   0.01200,
,,,-02.364000000000,   0.01200,
,,,-02.362000000000,   0.01600,
,,,-02.360000000000,   0.01200,
,,,-02.358000000000,   0.01200,
,,,-02.356000000000,   0.01200,
,,,-02.354000000000,   0.02000,
,,,-02.352000000000,   0.01200,
,,,-02.350000000000,   0.01600,
,,,-02.348000000000,   0.01200,
,,,-02.346000000000,   0.01200,
,,,-02.344000000000,   0.01200,
,,,-02.342000000000,   0.02000,
,,,-02.340000000000,   0.01600,
,,,-02.338000000000,   0.01600,
,,,-02.336000000000,   0.01600,
,,,-02.334000000000,   0.01200,
,,,-02.332000000000,   0.00800,
,,,-02.330000000000,   0.02000,
,,,-02.328000000000,   0.02000,
,,,-02.326000000000,   0.01200,
,,,-02.324000000000,   0.01200,
,,,-02.322000000000,   0.01200,
,,,-02.320000000000,   0.04400,
,,,-02.318000000000,   0.01200,
,,,-02.316000000000,   0.01200,
,,,-02.314000000000,   0.01200,
,,,-02.312000000000,   0.01200,
,,,-02.310000000000,   0.01600,
,,,-02.308000000000,   0.02000,
,,,-02.306000000000,   0.01600,
,,,-02.304000000000,   0.01600,
,,,-02.302000000000,   0.01600,
,,,-02.300000000000,   0.02000,
,,,-02.298000000000,   0.02000,
,,,-02.296000000000,   0.00800,
,,,-02.294000000000,   0.01200,
,,,-02.292000000000,   0.01600,
,,,-02.290000000000,   0.01200,
,,,-02.288000000000,   0.01200,
,,,-02.286000000000,   0.01200,
,,,-02.284000000000,   0.02000,
,,,-02.282000000000,   0.01200,
,,,-02.280000000000,   0.01200,
,,,-02.278000000000,   0.01600,
,,,-02.276000000000,   0.01200,
,,,-02.274000000000,   0.01200,
,,,-02.272000000000,   0.01200,
,,,-02.270000000000,   0.01200,
,,,-02.268000000000,   0.01600,
,,,-02.266000000000,   0.02400,
,,,-02.264000000000,   0.01200,
,,,-02.262000000000,   0.01600,
,,,-02.260000000000,   0.02000,
,,,-02.258000000000,   0.02000,
,,,-02.256000000000,   0.01600,
,,,-02.254000000000,   0.01200,
,,,-02.252000000000,   0.01600,
,,,-02.250000000000,   0.32400,
,,,-02.248000000000,   0.13200,
,,,-02.246000000000,   0.32000,
,,,-02.244000000000,   0.13200,
,,,-02.242000000000,   0.33600,
,,,-02.240000000000,   0.32400,
,,,-02.238000000000,   0.32800,
,,,-02.236000000000,   0.32800,
,,,-02.234000000000,   0.18400,
,,,-02.232000000000,   0.33200,
,,,-02.230000000000,   0.32800,
,,,-02.228000000000,   0.26000,
,,,-02.226000000000,   0.38000,
,,,-02.224000000000,   0.27600,
,,,-02.222000000000,   0.13200,
,,,-02.220000000000,   0.32800,
,,,-02.218000000000,   0.33200,
,,,-02.216000000000,   0.33200,
,,,-02.214000000000,   0.32800,
,,,-02.212000000000,   0.30800,
,,,-02.210000000000,   0.32800,
,,,-02.208000000000,   0.32400,
,,,-02.206000000000,   0.18800,
,,,-02.204000000000,   0.34000,
,,,-02.202000000000,   0.34800,
,,,-02.200000000000,   0.13600,
,,,-02.198000000000,   0.33200,
,,,-02.196000000000,   0.32800,
,,,-02.194000000000,   0.32400,
,,,-02.192000000000,   0.33600,
,,,-02.190000000000,   0.31600,
,,,-02.188000000000,   0.32800,
,,,-02.186000000000,   0.32400,
,,,-02.184000000000,   0.18400,
,,,-02.182000000000,   0.32800,
,,,-02.180000000000,   0.33200,
,,,-02.178000000000,   0.13600,
,,,-02.176000000000,   0.31600,
,,,-02.174000000000,   0.33200,
,,,-02.172000000000,   0.32800,
,,,-02.170000000000,   0.32800,
,,,-02.168000000000,   0.31200,
,,,-02.166000000000,   0.32800,
,,,-02.164000000000,   0.33200,
,,,-02.162000000000,   0.18400,
,,,-02.160000000000,   0.32800,
,,,-02.158000000000,   0.33200,
,,,-02.156000000000,   0.14000,
,,,-02.154000000000,   0.38000,
,,,-02.152000000000,   0.32400,
,,,-02.150000000000,   0.33200,
,,,-02.148000000000,   0.33600,
,,,-02.146000000000,   0.31600,
,,,-02.144000000000,   0.32400,
,,,-02.142000000000,   0.32800,
,,,-02.140000000000,   0.18800,
,,,-02.138000000000,   0.33200,
,,,-02.136000000000,   0.32400,
,,,-02.134000000000,   0.13600,
,,,-02.132000000000,   0.33200,
,,,-02.130000000000,   0.32800,
,,,-02.128000000000,   0.33200,
,,,-02.126000000000,   0.32800,
,,,-02.124000000000,   0.31600,
,,,-02.122000000000,   0.32400,
,,,-02.120000000000,   0.32800,
,,,-02.118000000000,   0.18000,
,,,-02.116000000000,   0.32800,
,,,-02.114000000000,   0.32800,
,,,-02.112000000000,   0.14000,
,,,-02.110000000000,   0.32800,
,,,-02.108000000000,   0.36000,
,,,-02.106000000000,   0.32800,
,,,-02.104000000000,   0.32800,
,,,-02.102000000000,   0.31600,
,,,-02.100000000000,   0.32800,
,,,-02.098000000000,   0.32400,
,,,-02.096000000000,   0.17600,
,,,-02.094000000000,   0.32400,
,,,-02.092000000000,   0.33600,
,,,-02.090000000000,   0.13600,
,,,-02.088000000000,   0.32800,
,,,-02.086000000000,   0.32400,
,,,-02.084000000000,   0.40400,
,,,-02.082000000000,   0.37200,
,,,-02.080000000000,   0.31600,
,,,-02.078000000000,   0.34000,
,,,-02.076000000000,   0.32800,
,,,-02.074000000000,   0.17600,
,,,-02.072000000000,   0.33200,
,,,-02.070000000000,   0.33600,
,,,-02.068000000000,   0.13200,
,,,-02.066000000000,   0.32400,
,,,-02.064000000000,   0.33200,
,,,-02.062000000000,   0.36000,
,,,-02.060000000000,   0.34000,
,,,-02.058000000000,   0.31200,
,,,-02.056000000000,   0.32800,
,,,-02.054000000000,   0.32400,
,,,-02.052000000000,   0.16800,
,,,-02.050000000000,   0.33200,
,,,-02.048000000000,   0.32800,
,,,-02.046000000000,   0.13600,
,,,-02.044000000000,   0.32800,
,,,-02.042000000000,   0.33200,
,,,-02.040000000000,   0.33600,
,,,-02.038000000000,   0.32800,
,,,-02.036000000000,   0.30000,
,,,-02.034000000000,   0.32000,
,,,-02.032000000000,   0.33200,
,,,-02.030000000000,   0.16800,
,,,-02.028000000000,   0.32800,
,,,-02.026000000000,   0.33200,
,,,-02.024000000000,   0.14000,
,,,-02.022000000000,   0.32800,
,,,-02.020000000000,   0.33200,
,,,-02.018000000000,   0.32800,
,,,-02.016000000000,   0.32400,
,,,-02.014000000000,   0.37600,
,,,-02.012000000000,   0.32800,
,,,-02.010000000000,   0.32800,
,,,-02.008000000000,   0.16400,
,,,-02.006000000000,   0.33200,
,,,-02.004000000000,   0.33200,
,,,-02.002000000000,   0.14000,
,,,-02.000000000000,   0.32800,
,,,-01.998000000000,   0.32400,
,,,-01.996000000000,   0.33200,
,,,-01.994000000000,   0.33200,
,,,-01.992000000000,   0.32400,
,,,-01.990000000000,   0.32800,
,,,-01.988000000000,   0.10800,
,,,-01.986000000000,   0.13200,
,,,-01.984000000000,   0.14000,
,,,-01.982000000000,   0.14400,
,,,-01.980000000000,   0.14800,
,,,-01.978000000000,   0.14000,
,,,-01.976000000000,   0.14800,
,,,-01.974000000000,   0.14400,
,,,-01.972000000000,   0.14000,
,,,-01.970000000000,   0.16000,
,,,-01.968000000000,   0.14800,
,,,-01.966000000000,   0.14400,
,,,-01.964000000000,   0.14800,
,,,-01.962000000000,   0.14800,
,,,-01.960000000000,   0.14800,
,,,-01.958000000000,   0.14400,
,,,-01.956000000000,   0.15200,
,,,-01.954000000000,   0.14800,
,,,-01.952000000000,   0.14800,
,,,-01.950000000000,   0.14800,
,,,-01.948000000000,   0.14800,
,,,-01.946000000000,   0.14800,
,,,-01.944000000000,   0.18400,
,,,-01.942000000000,   0.14800,
,,,-01.940000000000,   0.14800,
,,,-01.938000000000,   0.14800,
,,,-01.936000000000,   0.14800,
,,,-01.934000000000,   0.14800,
,,,-01.932000000000,   0.14800,
,,,-01.930000000000,   0.14800,
,,,-01.928000000000,   0.15200,
,,,-01.926000000000,   0.14400,
,,,-01.924000000000,   0.14800,
,,,-01.922000000000,   0.14800,
,,,-01.920000000000,   0.16000,
,,,-01.918000000000,   0.12000,
,,,-01.916000000000,   0.14800,
,,,-01.914000000000,   0.14800,
,,,-01.912000000000,   0.14800,
,,,-01.910000000000,   0.14800,
,,,-01.908000000000,   0.14800,
,,,-01.906000000000,   0.14800,
,,,-01.904000000000,   0.15200,
,,,-01.902000000000,   0.14800,
,,,-01.900000000000,   0.16000,
,,,-01.898000000000,   0.16000,
,,,-01.896000000000,   0.14800,
,,,-01.894000000000,   0.14000,
,,,-01.892000000000,   0.10000,
,,,-01.890000000000,   0.13200,
,,,-01.888000000000,   0.09200,
,,,-01.886000000000,   0.09600,
,,,-01.884000000000,   0.09600,
,,,-01.882000000000,   0.02000,
,,,-01.880000000000,   0.01200,
,,,-01.878000000000,   0.01200,
,,,-01.876000000000,   0.02000,
,,,-01.874000000000,   0.01600,
,,,-01.872000000000,   0.01600,
,,,-01.870000000000,   0.02000,
,,,-01.868000000000,   0.01200,
,,,-01.866000000000,   0.01200,
,,,-01.864000000000,   0.01600,
,,,-01.862000000000,   0.02000,
,,,-01.860000000000,   0.01600,
,,,-01.858000000000,   0.01200,
,,,-01.856000000000,   0.01200,
,,,-01.854000000000,   0.02000,
,,,-01.852000000000,   0.00400,
,,,-01.850000000000,   0.01200,
,,,-01.848000000000,   0.01600,
,,,-01.846000000000,   0.01200,
,,,-01.844000000000,   0.01200,
,,,-01.842000000000,   0.01600,
,,,-01.840000000000,   0.02000,
,,,-01.838000000000,   0.02000,
,,,-01.836000000000,   0.01200,
,,,-01.834000000000,   0.02400,
,,,-01.832000000000,   0.01600,
,,,-01.830000000000,   0.01600,
,,,-01.828000000000,   0.01600,
,,,-01.826000000000,   0.02000,
,,,-01.824000000000,   0.01600,
,,,-01.822000000000,   0.01200,
,,,-01.820000000000,   0.01200,
,,,-01.818000000000,   0.01200,
,,,-01.816000000000,   0.01200,
,,,-01.814000000000,   0.01600,
,,,-01.812000000000,   0.00400,
,,,-01.810000000000,   0.01200,
,,,-01.808000000000,   0.01600,
,,,-01.806000000000,   0.01200,
,,,-01.804000000000,   0.01600,
,,,-01.802000000000,   0.02000,
,,,-01.800000000000,   0.04800,
,,,-01.798000000000,   0.01200,
,,,-01.796000000000,   0.01600,
,,,-01.794000000000,   0.01200,
,,,-01.792000000000,   0.01600,
,,,-01.790000000000,   0.01200,
,,,-01.788000000000,   0.01600,
,,,-01.786000000000,   0.01200,
,,,-01.784000000000,   0.01600,
,,,-01.782000000000,   0.01600,
,,,-01.780000000000,   0.01600,
,,,-01.778000000000,   0.01200,
,,,-01.776000000000,   0.01600,
,,,-01.774000000000,   0.00800,
,,,-01.772000000000,   0.02000,
,,,-01.770000000000,   0.01600,
,,,-01.768000000000,   0.01200,
,,,-01.766000000000,   0.01200,
,,,-01.764000000000,   0.01200,
,,,-01.762000000000,   0.01600,
,,,-01.760000000000,   0.01200,
,,,-01.758000000000,   0.01600,
,,,-01.756000000000,   0.01600,
,,,-01.754000000000,   0.01600,
,,,-01.752000000000,   0.01600,
,,,-01.750000000000,   0.31600,
,,,-01.748000000000,   0.02000,
,,,-01.746000000000,   0.04000,
,,,-01.744000000000,   0.01200,
,,,-01.742000000000,   0.01200,
,,,-01.740000000000,   0.01200,
,,,-01.738000000000,   0.01600,
,,,-01.736000000000,   0.01600,
,,,-01.734000000000,   0.01600,
,,,-01.732000000000,   0.01200,
,,,-01.730000000000,   0.02000,
,,,-01.728000000000,   0.01600,
,,,-01.726000000000,   0.01200,
,,,-01.724000000000,   0.01600,
,,,-01.722000000000,   0.01200,
,,,-01.720000000000,   0.01600,
,,,-01.718000000000,   0.01600,
,,,-01.716000000000,   0.00800,
,,,-01.714000000000,   0.01200,
,,,-01.712000000000,   0.02000,
,,,-01.710000000000,   0.01600,
,,,-01.708000000000,   0.01200,
,,,-01.706000000000,   0.01600,
,,,-01.704000000000,   0.01600,
,,,-01.702000000000,   0.02000,
,,,-01.700000000000,   0.01200,
,,,-01.698000000000,   0.01600,
,,,-01.696000000000,   0.01200,
,,,-01.694000000000,   0.02400,
,,,-01.692000000000,   0.04800,
,,,-01.690000000000,   0.01200,
,,,-01.688000000000,   0.02000,
,,,-01.686000000000,   0.01600,
,,,-01.684000000000,   0.01200,
,,,-01.682000000000,   0.01200,
,,,-01.680000000000,   0.01200,
,,,-01.678000000000,   0.02000,
,,,-01.676000000000,   0.01200,
,,,-01.674000000000,   0.01200,
,,,-01.672000000000,   0.01200,
,,,-01.670000000000,   0.01600,
,,,-01.668000000000,   0.01200,
,,,-01.666000000000,   0.01600,
,,,-01.664000000000,   0.01200,
,,,-01.662000000000,   0.01200,
,,,-01.660000000000,   0.02000,
,,,-01.658000000000,   0.01600,
,,,-01.656000000000,   0.02000,
,,,-01.654000000000,   0.02000,
,,,-01.652000000000,   0.02000,
,,,-01.650000000000,   0.01200,
,,,-01.648000000000,   0.01600,
,,,-01.646000000000,   0.01600,
,,,-01.644000000000,   0.01600,
,,,-01.642000000000,   0.01200,
,,,-01.640000000000,   0.02000,
,,,-01.638000000000,   0.00400,
,,,-01.636000000000,   0.01600,
,,,-01.634000000000,   0.01600,
,,,-01.632000000000,   0.01200,
,,,-01.630000000000,   0.02000,
,,,-01.628000000000,   0.01200,
,,,-01.626000000000,   0.01600,
,,,-01.624000000000,   0.01200,
,,,-01.622000000000,   0.01200,
,,,-01.620000000000,   0.01200,
,,,-01.618000000000,   0.02000,
,,,-01.616000000000,   0.01200,
,,,-01.614000000000,   0.01200,
,,,-01.612000000000,   0.01600,
,,,-01.610000000000,   0.01200,
,,,-01.608000000000,   0.01200,
,,,-01.606000000000,   0.01200,
,,,-01.604000000000,   0.01200,
,,,-01.602000000000,   0.01200,
,,,-01.600000000000,   0.01600,
,,,-01.598000000000,   0.01200,
,,,-01.596000000000,   0.01600,
,,,-01.594000000000,   0.01200,
,,,-01.592000000000,   0.02000,
,,,-01.590000000000,   0.01200,
,,,-01.588000000000,   0.02000,
,,,-01.586000000000,   0.02000,
,,,-01.584000000000,   0.00800,
,,,-01.582000000000,   0.01600,
,,,-01.580000000000,   0.01200,
,,,-01.578000000000,   0.01600,
,,,-01.576000000000,   0.01200,
,,,-01.574000000000,   0.01200,
,,,-01.572000000000,   0.01200,
,,,-01.570000000000,   0.01200,
,,,-01.568000000000,   0.00800,
,,,-01.566000000000,   0.01200,
,,,-01.564000000000,   0.01600,
,,,-01.562000000000,   0.01600,
,,,-01.560000000000,   0.01200,
,,,-01.558000000000,   0.01200,
,,,-01.556000000000,   0.02000,
,,,-01.554000000000,   0.01200,
,,,-01.552000000000,   0.01200,
,,,-01.550000000000,   0.01600,
,,,-01.548000000000,   0.02000,
,,,-01.546000000000,   0.01600,
,,,-01.544000000000,   0.01200,
,,,-01.542000000000,   0.01200,
,,,-01.540000000000,   0.01200,
,,,-01.538000000000,   0.01600,
,,,-01.536000000000,   0.01200,
,,,-01.534000000000,   0.01600,
,,,-01.532000000000,   0.01200,
,,,-01.530000000000,  -0.01600,
,,,-01.528000000000,   0.01200,
,,,-01.526000000000,   0.01200,
,,,-01.524000000000,   0.01600,
,,,-01.522000000000,   0.01600,
,,,-01.520000000000,   0.01200,
,,,-01.518000000000,   0.01600,
,,,-01.516000000000,   0.01200,
,,,-01.514000000000,   0.01200,
,,,-01.512000000000,   0.01200,
,,,-01.510000000000,   0.01200,
,,,-01.508000000000,   0.02000,
,,,-01.506000000000,   0.02000,
,,,-01.504000000000,   0.02000,
,,,-01.502000000000,   0.01200,
,,,-01.500000000000,   0.31600,
,,,-01.498000000000,   0.01200,
,,,-01.496000000000,   0.01600,
,,,-01.494000000000,   0.01200,
,,,-01.492000000000,   0.02000,
,,,-01.490000000000,   0.00800,
,,,-01.488000000000,   0.01200,
,,,-01.486000000000,   0.01600,
,,,-01.484000000000,   0.01200,
,,,-01.482000000000,   0.01200,
,,,-01.480000000000,   0.02000,
,,,-01.478000000000,   0.01200,
,,,-01.476000000000,   0.02000,
,,,-01.474000000000,   0.01600,
,,,-01.472000000000,   0.02400,
,,,-01.470000000000,   0.01600,
,,,-01.468000000000,   0.01200,
,,,-01.466000000000,   0.02000,
,,,-01.464000000000,   0.01200,
,,,-01.462000000000,   0.01600,
,,,-01.460000000000,   0.00800,
,,,-01.458000000000,   0.02000,
,,,-01.456000000000,   0.01200,
,,,-01.454000000000,   0.00800,
,,,-01.452000000000,   0.01600,
,,,-01.450000000000,   0.01200,
,,,-01.448000000000,   0.02400,
,,,-01.446000000000,   0.01200,
,,,-01.444000000000,   0.01200,
,,,-01.442000000000,   0.02000,
,,,-01.440000000000,   0.01200,
,,,-01.438000000000,   0.01200,
,,,-01.436000000000,   0.01600,
,,,-01.434000000000,   0.01600,
,,,-01.432000000000,   0.01200,
,,,-01.430000000000,   0.01200,
,,,-01.428000000000,   0.01600,
,,,-01.426000000000,   0.01200,
,,,-01.424000000000,   0.01200,
,,,-01.422000000000,   0.01200,
,,,-01.420000000000,   0.01600,
,,,-01.418000000000,   0.02400,
,,,-01.416000000000,   0.01600,
,,,-01.414000000000,   0.01200,
,,,-01.412000000000,   0.02000,
,,,-01.410000000000,   0.01200,
,,,-01.408000000000,   0.01200,
,,,-01.406000000000,   0.01200,
,,,-01.404000000000,   0.01200,
,,,-01.402000000000,   0.02000,
,,,-01.400000000000,   0.01600,
,,,-01.398000000000,   0.01200,
,,,-01.396000000000,   0.01200,
,,,-01.394000000000,   0.01600,
,,,-01.392000000000,   0.01600,
,,,-01.390000000000,   0.01200,
,,,-01.388000000000,   0.01600,
,,,-01.386000000000,   0.01600,
,,,-01.384000000000,   0.01200,
,,,-01.382000000000,   0.01600,
,,,-01.380000000000,   0.01600,
,,,-01.378000000000,   0.01200,
,,,-01.376000000000,   0.01200,
,,,-01.374000000000,   0.01600,
,,,-01.372000000000,   0.01200,
,,,-01.370000000000,   0.01200,
,,,-01.368000000000,   0.01200,
,,,-01.366000000000,   0.01600,
,,,-01.364000000000,   0.04400,
,,,-01.362000000000,   0.01200,
,,,-01.360000000000,   0.01600,
,,,-01.358000000000,   0.01200,
,,,-01.356000000000,   0.01200,
,,,-01.354000000000,   0.01600,
,,,-01.352000000000,   0.01200,
,,,-01.350000000000,   0.01600,
,,,-01.348000000000,   0.01600,
,,,-01.346000000000,   0.01200,
,,,-01.344000000000,   0.01600,
,,,-01.342000000000,   0.01200,
,,,-01.340000000000,   0.01200,
,,,-01.338000000000,   0.01200,
,,,-01.336000000000,   0.00800,
,,,-01.334000000000,   0.02000,
,,,-01.332000000000,   0.01200,
,,,-01.330000000000,   0.01600,
,,,-01.328000000000,   0.02400,
,,,-01.326000000000,   0.01200,
,,,-01.324000000000,   0.02000,
,,,-01.322000000000,   0.02000,
,,,-01.320000000000,   0.01600,
,,,-01.318000000000,   0.01200,
,,,-01.316000000000,   0.01200,
,,,-01.314000000000,   0.01600,
,,,-01.312000000000,   0.01200,
,,,-01.310000000000,   0.03200,
,,,-01.308000000000,   0.00800,
,,,-01.306000000000,   0.01600,
,,,-01.304000000000,   0.01600,
,,,-01.302000000000,   0.01200,
,,,-01.300000000000,   0.01600,
,,,-01.298000000000,   0.01600,
,,,-01.296000000000,   0.01600,
,,,-01.294000000000,   0.02000,
